{
    "KPlugin": {
        "Authors": [
            {
                "Email": "luigi.toscano@tiscali.it",
                "Name": "Luigi Toscano",
                "Name[az]": "Luigi Toscano",
                "Name[ca@valencia]": "Luigi Toscano",
                "Name[ca]": "Luigi Toscano",
                "Name[cs]": "Luigi Toscano",
                "Name[da]": "Luigi Toscano",
                "Name[de]": "Luigi Toscano",
                "Name[el]": "Luigi Toscano",
                "Name[en_GB]": "Luigi Toscano",
                "Name[es]": "Luigi Toscano",
                "Name[et]": "Luigi Toscano",
                "Name[eu]": "Luigi Toscano",
                "Name[fi]": "Luigi Toscano",
                "Name[fr]": "Luigi Toscano",
                "Name[gl]": "Luigi Toscano",
                "Name[ia]": "Luigi Toscano",
                "Name[it]": "Luigi Toscano",
                "Name[ko]": "Luigi Toscano",
                "Name[lt]": "Luigi Toscano",
                "Name[nl]": "Luigi Toscano",
                "Name[nn]": "Luigi Toscano",
                "Name[pl]": "Luigi Toscano",
                "Name[pt]": "Luigi Toscano",
                "Name[pt_BR]": "Luigi Toscano",
                "Name[ru]": "Luigi Toscano",
                "Name[sk]": "Luigi Toscano",
                "Name[sl]": "Luigi Toscano",
                "Name[sr@ijekavian]": "Луиђи Тоскано",
                "Name[sr@ijekavianlatin]": "Luiđi Toskano",
                "Name[sr@latin]": "Luiđi Toskano",
                "Name[sr]": "Луиђи Тоскано",
                "Name[sv]": "Luigi Toscano",
                "Name[tr]": "Luigi Toscano",
                "Name[uk]": "Luigi Toscano",
                "Name[x-test]": "xxLuigi Toscanoxx",
                "Name[zh_CN]": "Luigi Toscano",
                "Name[zh_TW]": "Luigi Toscano"
            }
        ],
        "Copyright": "© 2006 Luigi Toscano",
        "Copyright[az]": "© 2006 Luigi Toscano",
        "Copyright[ca@valencia]": "© 2006 Luigi Toscano",
        "Copyright[ca]": "© 2006 Luigi Toscano",
        "Copyright[cs]": "© 2006 Luigi Toscano",
        "Copyright[da]": "© 2006 Luigi Toscano",
        "Copyright[de]": "© 2006 Luigi Toscano",
        "Copyright[el]": "© 2006 Luigi Toscano",
        "Copyright[en_GB]": "© 2006 Luigi Toscano",
        "Copyright[es]": "© 2006 Luigi Toscano",
        "Copyright[et]": "© 2006: Luigi Toscano",
        "Copyright[eu]": "© 2006 Luigi Toscano",
        "Copyright[fi]": "© 2006 Luigi Toscano",
        "Copyright[fr]": "© 2006 Luigi Toscano",
        "Copyright[gl]": "© 2006 Luigi Toscano",
        "Copyright[ia]": "© 2006 Pino Toscano",
        "Copyright[it]": "© 2006 Luigi Toscano",
        "Copyright[ko]": "© 2006 Luigi Toscano",
        "Copyright[lt]": "© 2006 Luigi Toscano",
        "Copyright[nl]": "© 2006 Luigi Toscano",
        "Copyright[nn]": "© 2006 Luigi Toscano",
        "Copyright[pl]": "© 2006 Luigi Toscano",
        "Copyright[pt]": "© 2006 Luigi Toscano",
        "Copyright[pt_BR]": "© 2006 Luigi Toscano",
        "Copyright[ru]": "© Luigi Toscano, 2006",
        "Copyright[sk]": "© 2006 Luigi Toscano",
        "Copyright[sl]": "© 2006 Luigi Toscano",
        "Copyright[sr@ijekavian]": "© 2006, Луиђи Тоскано",
        "Copyright[sr@ijekavianlatin]": "© 2006, Luiđi Toskano",
        "Copyright[sr@latin]": "© 2006, Luiđi Toskano",
        "Copyright[sr]": "© 2006, Луиђи Тоскано",
        "Copyright[sv]": "© 2006 Luigi Toscano",
        "Copyright[tr]": "© 2006 Luigi Toscano",
        "Copyright[uk]": "© Luigi Toscano, 2006",
        "Copyright[x-test]": "xx© 2006 Luigi Toscanoxx",
        "Copyright[zh_CN]": "© 2006 Luigi Toscano",
        "Copyright[zh_TW]": "© 2006 Luigi Toscano",
        "Description": "A DVI file renderer",
        "Description[az]": "DVİ faylı tərtibatçısı",
        "Description[ca@valencia]": "Un renderitzador per als fitxers DVI",
        "Description[ca]": "Un renderitzador per als fitxers DVI",
        "Description[cs]": "Vykreslovač DVI souborů",
        "Description[da]": "En gengiver til DVI-filer",
        "Description[de]": "Ein Renderer für DVI-Dateien",
        "Description[el]": "Πρόγραμμα αποτύπωσης για DVI αρχεία",
        "Description[en_GB]": "A DVI file renderer",
        "Description[es]": "Un visor de archivos DVI",
        "Description[et]": "DVI-faili renderdaja",
        "Description[eu]": "DVI fitxategi errendatzaile bat",
        "Description[fi]": "DVI-tiedostohahmonnin",
        "Description[fr]": "Système de rendu pour fichiers « DVI »",
        "Description[gl]": "Un visor de ficheiros DVI",
        "Description[ia]": "Un renditor de file de DVI",
        "Description[it]": "Un visualizzatore di file DVI",
        "Description[ko]": "DVI 파일 렌더러",
        "Description[lt]": "DVI failų atvaizdavimas",
        "Description[nl]": "Een DVI-bestandsweergever",
        "Description[nn]": "Ein gjengjevar for DVI-filer",
        "Description[pl]": "Wyświetlanie pliku DVI",
        "Description[pt]": "Um visualizador de ficheiros DVI",
        "Description[pt_BR]": "Um renderizador de arquivo DVI",
        "Description[ru]": "Модуль поддержки формата DVI",
        "Description[sk]": "Vykresľovanie DVI súborov",
        "Description[sl]": "Izrisovalnik datotek DVI",
        "Description[sr@ijekavian]": "Рендерер ДВИ фајлова",
        "Description[sr@ijekavianlatin]": "Renderer DVI fajlova",
        "Description[sr@latin]": "Renderer DVI fajlova",
        "Description[sr]": "Рендерер ДВИ фајлова",
        "Description[sv]": "Ett återgivningsprogram för DVI-filer",
        "Description[tr]": "Bir DVI dosya oluşturucu",
        "Description[uk]": "Інструмент для показу файлів DVI",
        "Description[x-test]": "xxA DVI file rendererxx",
        "Description[zh_CN]": "DVI 文件渲染器",
        "Description[zh_TW]": "DVI 檔成像器",
        "Id": "okular_dvi",
        "License": "GPL",
        "MimeTypes": [
            "application/x-dvi"
        ],
        "Name": "DVI Backend",
        "Name[az]": "DVİ modulu",
        "Name[ca@valencia]": "Dorsal DVI",
        "Name[ca]": "Dorsal DVI",
        "Name[cs]": "Implementace DVI",
        "Name[da]": "DVI-backend",
        "Name[de]": "Anzeigemodul für DVI",
        "Name[el]": "Σύστημα υποστήριξης DVI",
        "Name[en_GB]": "DVI Backend",
        "Name[es]": "Motor para DVI",
        "Name[et]": "DVI taustaprogramm",
        "Name[eu]": "DVIren bizkarraldekoa",
        "Name[fi]": "DVI-taustaosa",
        "Name[fr]": "Moteur DVI",
        "Name[gl]": "Infraestrutura de DVI",
        "Name[ia]": "Retro-administration de DVI",
        "Name[it]": "Backend DVI",
        "Name[ko]": "DVI 백엔드",
        "Name[lt]": "DVI programinė sąsaja",
        "Name[nl]": "DVI-backend",
        "Name[nn]": "DVI-motor",
        "Name[pl]": "Obsługa DVI",
        "Name[pt]": "Infra-Estrutura de DVI",
        "Name[pt_BR]": "Infraestrutura DVI",
        "Name[ru]": "Модуль поддержки формата DVI",
        "Name[sk]": "DVI Backend",
        "Name[sl]": "Zaledje za DVI",
        "Name[sr@ijekavian]": "Позадина за ДВИ",
        "Name[sr@ijekavianlatin]": "Pozadina za DVI",
        "Name[sr@latin]": "Pozadina za DVI",
        "Name[sr]": "Позадина за ДВИ",
        "Name[sv]": "DVI-gränssnitt",
        "Name[tr]": "DVI Arka Ucu",
        "Name[uk]": "Модуль DVI",
        "Name[x-test]": "xxDVI Backendxx",
        "Name[zh_CN]": "DVI 后端",
        "Name[zh_TW]": "DVI 後端介面",
        "ServiceTypes": [
            "okular/Generator"
        ],
        "Version": "0.3.7"
    },
    "X-KDE-Priority": 2,
    "X-KDE-okularAPIVersion": 1,
    "X-KDE-okularHasInternalSettings": false
}
